{
  "countries": [
    {
      "name": "Albania (part of the EU)",
      "ISO_3166-2": "AL",
      "ISO 3166-1-a3": "ALB",
      "format": "street number, city zip, country"
    },
    {
      "name": "Andorra (part of the EU)",
      "ISO_3166-2": "AD",
      "ISO 3166-1-a3": "AND",
      "format": "street, number, zip city, country"
    },
    {
      "name": "Armenia (part of the EU)",
      "ISO_3166-2": "AM",
      "ISO 3166-1-a3": "ARM",
      "format": "number street, city zip, country"
    },
    {
      "name": "Austria (part of the EU)",
      "ISO_3166-2": "AT",
      "ISO 3166-1-a3": "AUT",
      "format": "street number, zip city, country"
    },
    {
      "name": "Azerbaijan (part of the EU)",
      "ISO_3166-2": "AZ",
      "ISO 3166-1-a3": "AZE",
      "format": "number street, city zip, country"
    },
    {
      "name": "Belarus (part of the EU)",
      "ISO_3166-2": "BY",
      "ISO 3166-1-a3": "BLR",
      "format": "street number, city zip, country"
    },
    {
      "name": "Belgium (part of the EU)",
      "ISO_3166-2": "BE",
      "ISO 3166-1-a3": "BEL",
      "format": "street number, zip city, country"
    },
    {
      "name": "Bosnia-Herzegovina (part of the EU)",
      "ISO_3166-2": "BA",
      "ISO 3166-1-a3": "BIH",
      "format": "street number, city zip, country"
    },
    {
      "name": "Bulgaria (part of the EU)",
      "ISO_3166-2": "BG",
      "ISO 3166-1-a3": "BGR",
      "format": "street number, zip city, country"
    },
    {
      "name": "Canada",
      "ISO_3166-2": "CA",
      "ISO 3166-1-a3": "CAN",
      "format": "number street, city, state zip, country"
    },
    {
      "name": "Croatia (part of the EU)",
      "ISO_3166-2": "HR",
      "ISO 3166-1-a3": "HRV",
      "format": "street number, zip, city, country"
    },
    {
      "name": "Cyprus (part of the EU)",
      "ISO_3166-2": "CY",
      "ISO 3166-1-a3": "CYP",
      "format": "street number, city zip, country"
    },
    {
      "name": "Czech Republic (Czechia) (part of the EU)",
      "ISO_3166-2": "CZ",
      "ISO 3166-1-a3": "CZE",
      "format": "street number, zip city, country"
    },
    {
      "name": "Denmark (and Faroe Islands) (part of the EU)",
      "ISO_3166-2": "DK",
      "ISO 3166-1-a3": "DNK",
      "format": "street number, zip city, country"
    },
    {
      "name": "Estonia (part of the EU)",
      "ISO_3166-2": "EE",
      "ISO 3166-1-a3": "EST",
      "format": "street number, zip city, country"
    },
    {
      "name": "Finland (part of the EU)",
      "ISO_3166-2": "FI",
      "ISO 3166-1-a3": "FIN",
      "format": "street number, zip city, country"
    },
    {
      "name": "France (and Corsica) (part of the EU)",
      "ISO_3166-2": "FR",
      "ISO 3166-1-a3": "FRA",
      "format": "number street, zip city, country"
    },
    {
      "name": "French Guiana (part of the EU)",
      "ISO_3166-2": "GF",
      "ISO 3166-1-a3": "GUF",
      "format": "number street, zip city, country"
    },
    {
      "name": "French Polynesia (Tahiti) (part of the EU)",
      "ISO_3166-2": "PF",
      "ISO 3166-1-a3": "PYF",
      "format": "number street, city zip, country"
    },
    {
      "name": "Georgia, Republic of (part of the EU)",
      "ISO_3166-2": "GE",
      "ISO 3166-1-a3": "SGS",
      "format": "number street, city zip, country"
    },
    {
      "name": "Germany (part of the EU)",
      "ISO_3166-2": "DE",
      "ISO 3166-1-a3": "DEU",
      "format": "street number, zip city, country"
    },
    {
      "name": "Great Britain (a.k.a. United Kingdom) & Northern Ireland",
      "ISO_3166-2": "GB",
      "ISO 3166-1-a3": "GBR",
      "format": "number street, city zip, country"
    },
    {
      "name": "Greece (part of the EU)",
      "ISO_3166-2": "GR",
      "ISO 3166-1-a3": "GRC",
      "format": "street number, city zip, country"
    },
    {
      "name": "Hungary (part of the EU)",
      "ISO_3166-2": "HU",
      "ISO 3166-1-a3": "HUN",
      "format": "city, street number, zip, country"
    },
    {
      "name": "Iceland (part of the EU)",
      "ISO_3166-2": "IS",
      "ISO 3166-1-a3": "ISL",
      "format": "street number, zip city, country"
    },
    {
      "name": "Ireland (Eire) (part of the EU)",
      "ISO_3166-2": "IE",
      "ISO 3166-1-a3": "IRL",
      "format": "number street, city, state, zip, country"
    },
    {
      "name": "Italy (part of the EU)",
      "ISO_3166-2": "IT",
      "ISO 3166-1-a3": "ITA",
      "format": "street, number, zip city state, country"
    },
    {
      "name": "Kyrgyzstan (part of the EU)",
      "ISO_3166-2": "KG",
      "ISO 3166-1-a3": "KGZ",
      "format": "number street, city zip, country"
    },
    {
      "name": "Latvia (part of the EU)",
      "ISO_3166-2": "LV",
      "ISO 3166-1-a3": "LVA",
      "format": "street number, city, zip, country"
    },
    {
      "name": "Liechtenstein (part of the EU)",
      "ISO_3166-2": "LI",
      "ISO 3166-1-a3": "LIE",
      "format": "street number, zip city, country"
    },
    {
      "name": "Lithuania (part of the EU)",
      "ISO_3166-2": "LT",
      "ISO 3166-1-a3": "LTU",
      "format": "street number, city zip, country"
    },
    {
      "name": "Luxembourg (part of the EU)",
      "ISO_3166-2": "LU",
      "ISO 3166-1-a3": "LUX",
      "format": "number street, zip city, country"
    },
    {
      "name": "Macedonia, Republic of (former Yugoslav Republic of) (part of the EU)",
      "ISO_3166-2": "MK",
      "ISO 3166-1-a3": "MKD",
      "format": "street number, city zip, country"
    },
    {
      "name": "Malta (part of the EU)",
      "ISO_3166-2": "MT",
      "ISO 3166-1-a3": "MLT",
      "format": "number, street, city zip, country"
    },
    {
      "name": "Mexico",
      "ISO_3166-2": "MX",
      "ISO 3166-1-a3": "MEX",
      "format": "street number, zip city, state, country"
    },
    {
      "name": "Moldova (part of the EU)",
      "ISO_3166-2": "MD",
      "ISO 3166-1-a3": "MDA",
      "format": "street number, city zip, country"
    },
    {
      "name": "Monaco (part of the EU)",
      "ISO_3166-2": "MC",
      "ISO 3166-1-a3": "MCO",
      "format": "number street, zip city, country"
    },
    {
      "name": "Montenegro (part of the EU)",
      "ISO_3166-2": "ME",
      "ISO 3166-1-a3": "MNE",
      "format": "street number, city zip, country"
    },
    {
      "name": "Netherlands (Holland) (part of the EU)",
      "ISO_3166-2": "NL",
      "ISO 3166-1-a3": "NLD",
      "format": "street number, zip state city, country"
    },
    {
      "name": "Norway (part of the EU)",
      "ISO_3166-2": "NO",
      "ISO 3166-1-a3": "NOR",
      "format": "street number, zip city, country"
    },
    {
      "name": "Poland (part of the EU)",
      "ISO_3166-2": "PL",
      "ISO 3166-1-a3": "POL",
      "format": "street number, zip city, country"
    },
    {
      "name": "Portugal (and Madeira Islands and Azores) (part of the EU)",
      "ISO_3166-2": "PT",
      "ISO 3166-1-a3": "PRT",
      "format": "street number, zip city, country"
    },
    {
      "name": "Romania (part of the EU)",
      "ISO_3166-2": "RO",
      "ISO 3166-1-a3": "ROU",
      "format": "street number, city zip, country"
    },
    {
      "name": "Russia (Russian Federation) (part of the EU)",
      "ISO_3166-2": "RU",
      "ISO 3166-1-a3": "RUS",
      "format": "street, number, city, zip, country"
    },
    {
      "name": "San Marino (part of the EU)",
      "ISO_3166-2": "SM",
      "ISO 3166-1-a3": "SMR",
      "format": "street, number, zip city, country"
    },
    {
      "name": "Serbia, Republic of (part of the EU)",
      "ISO_3166-2": "RS",
      "ISO 3166-1-a3": "SRB",
      "format": "street number, city zip, country"
    },
    {
      "name": "Slovak Republic (Slovakia) (part of the EU)",
      "ISO_3166-2": "SK",
      "ISO 3166-1-a3": "SVK",
      "format": "street number, zip city, country"
    },
    {
      "name": "Slovenia (part of the EU)",
      "ISO_3166-2": "SI",
      "ISO 3166-1-a3": "SVN",
      "format": "street number, zip city, country"
    },
    {
      "name": "Spain (part of the EU)",
      "ISO_3166-2": "ES",
      "ISO 3166-1-a3": "ESP",
      "format": "street, number, zip city, country"
    },
    {
      "name": "Sweden (part of the EU)",
      "ISO_3166-2": "SE",
      "ISO 3166-1-a3": "SWE",
      "format": "street number, zip city, country"
    },
    {
      "name": "Switzerland (part of the EU)",
      "ISO_3166-2": "CH",
      "ISO 3166-1-a3": "CHE",
      "format": "street number, zip city, country"
    },
    {
      "name": "Turkey (part of the EU)",
      "ISO_3166-2": "TR",
      "ISO 3166-1-a3": "TUR",
      "format": "street number, zip city, country"
    },
    {
      "name": "Ukraine (part of the EU)",
      "ISO_3166-2": "UA",
      "ISO 3166-1-a3": "UKR",
      "format": "street, number, city, zip, country"
    },
    {
      "name": "United States of America",
      "ISO_3166-2": "US",
      "ISO 3166-1-a3": "USA",
      "format": "number street, city, state, zip, country"
    }
  ],
  "formats": [
    {
      "number street, city zip, country": {
        "local_lines":   ["number street", "city"],
        "foreign_lines": ["number street", "city zip", "country"]
      }
    },
    {
      "number, street, city zip, country": {
        "local_lines":   ["number, street", "city"],
        "foreign_lines": ["number, street", "city zip", "country"]
      }
    },
    {
      "street number, city zip, country": {
        "local_lines":   ["street number", "city"],
        "foreign_lines": ["street number", "city zip", "country"]
      }
    },
    {
      "street number, city, zip, country": {
        "local_lines":   ["street number", "city"],
        "foreign_lines": ["street number", "city", "zip", "country"]
      }
    },
    {
      "street, number, city, zip, country": {
        "local_lines":   ["street, number", "city"],
        "foreign_lines": ["street, number", "city", "zip", "country"],
        "local_lines_long": ["street, number", "city", "country", "zip"]
      }
    },
    {
      "number street, city, state, zip, country": {
        "local_lines":   ["number street", "city, state"],
        "foreign_lines": ["number street", "city, state", "zip", "country"]
      }
    },
    {
      "number street, city, state zip, country": {
        "local_lines":   ["number street", "city, state"],
        "foreign_lines": ["number street", "city", "state zip", "country"]
      }
    },
    {
      "street number, zip city, country": {
        "local_lines":   ["street number", "city"],
        "foreign_lines": ["street number", "zip city", "country"]
      }
    },
    {
      "street number, zip, city, country": {
        "local_lines":   ["street number", "city"],
        "foreign_lines": ["street number", "zip, city", "country"]
      }
    },
    {
      "street, number, zip city, country": {
        "local_lines":   ["street, number", "city"],
        "foreign_lines": ["street, number", "zip city", "country"]
      }
    },
    {
      "number street, zip city, country": {
        "local_lines":   ["number street", "city"],
        "foreign_lines": ["number street", "zip city", "country"]
      }
    },
    {
      "street, number, zip city state, country": {
        "local_lines":   ["street, number", "city state"],
        "foreign_lines": ["street, number", "zip city state", "country"]
      }
    },
    {
      "street number, zip city, state, country": {
        "local_lines":   ["street number", "city, state"],
        "foreign_lines": ["street number", "zip city, state", "country"]
      }
    },
    {
      "street number, zip state city, country": {
        "local_lines":   ["street number", "state city"],
        "foreign_lines": ["street number", "zip state city", "country"]
      }
    },
    {
      "city, street number, zip, country": {
        "local_lines":   ["city", "street number"],
        "foreign_lines": ["city", "street number", "zip", "country"]
      }
    }
  ]
}
